%YAML 1.1
%TAG !u! tag:unity3d.com,2011:
--- !u!114 &11400000
MonoBehaviour:
  m_ObjectHideFlags: 0
  m_CorrespondingSourceObject: {fileID: 0}
  m_PrefabInstance: {fileID: 0}
  m_PrefabAsset: {fileID: 0}
  m_GameObject: {fileID: 0}
  m_Enabled: 1
  m_EditorHideFlags: 0
  m_Script: {fileID: 11500000, guid: 7612acbc1a4a4ed0afa5f4ccbe42bee4, type: 3}
  m_Name: Essential Vision MixedRealityToolkitConfigurationProfile
  m_EditorClassIdentifier: 
  isCustomProfile: 1
  targetExperienceScale: 3
  enableCameraSystem: 0
  cameraProfile: {fileID: 0}
  cameraSystemType:
    reference: 
  enableInputSystem: 0
  inputSystemProfile: {fileID: 0}
  inputSystemType:
    reference: 
  enableBoundarySystem: 0
  boundarySystemType:
    reference: 
  boundaryVisualizationProfile: {fileID: 0}
  enableTeleportSystem: 0
  teleportSystemType:
    reference: 
  enableSpatialAwarenessSystem: 0
  spatialAwarenessSystemType:
    reference: 
  spatialAwarenessSystemProfile: {fileID: 0}
  diagnosticsSystemProfile: {fileID: 0}
  enableDiagnosticsSystem: 0
  diagnosticsSystemType:
    reference: 
  sceneSystemProfile: {fileID: 0}
  enableSceneSystem: 0
  sceneSystemType:
    reference: 
  registeredServiceProvidersProfile: {fileID: 0}
  useServiceInspectors: 0
  renderDepthBuffer: 0
  enableVerboseLogging: 0
