%YAML 1.1
%TAG !u! tag:unity3d.com,2011:
--- !u!114 &11400000
MonoBehaviour:
  m_ObjectHideFlags: 0
  m_CorrespondingSourceObject: {fileID: 0}
  m_PrefabInstance: {fileID: 0}
  m_PrefabAsset: {fileID: 0}
  m_GameObject: {fileID: 0}
  m_Enabled: 1
  m_EditorHideFlags: 0
  m_Script: {fileID: 11500000, guid: a0d3e2fcd636d0243820f1bebf6e167b, type: 3}
  m_Name: ScaleHandlesConfiguration
  m_EditorClassIdentifier: 
  handleMaterial: {fileID: 2100000, guid: 986558eab447a9847bbe138149edc1b4, type: 2}
  handleGrabbedMaterial: {fileID: 2100000, guid: cd4f0804b166a5e4dbefe7a9d10a1438,
    type: 2}
  handlePrefab: {fileID: 0}
  handleSize: 0.01
  colliderPadding: {x: 0.1, y: 0.1, z: 0.1}
  drawTetherWhenManipulating: 1
  handlesIgnoreCollider: {fileID: 0}
  handleSlatePrefab: {fileID: 0}
  showScaleHandles: 1
  scaleBehavior: 0
